<?xml version="1.0" ?>
<sdf version="1.5">
	<world name="default">
        <physics type="ode">
            <real_time_update_rate>
            0
            </real_time_update_rate>
            <max_contacts>
            2
            </max_contacts>
        </physics>

		<!-- A global light source -->
		<include>
			<uri>model://sun</uri>
		</include>

		<!-- A ground plane -->
		<include>
			<uri>model://ground_plane</uri>
		</include>

        <!-- Vagon -->
		<include>
			<uri>model://vagon</uri>
			<static>true</static>
			<pose>0 0 1 0 0 0</pose>
		</include>

	</world>
</sdf>
